{
  "shell_port": 59969,
  "iopub_port": 52841,
  "stdin_port": 60439,
  "control_port": 55579,
  "hb_port": 53711,
  "ip": "127.0.0.1",
  "key": "1442473e-2d5b920883385c6b3634dd36",
  "transport": "tcp",
  "signature_scheme": "hmac-sha256",
  "kernel_name": ""
}